Software/laRVa_lesdoy_G4/tb.vcd
$date
	Tue Dec 02 10:42:28 2025
$end
$version
	Icarus Verilog
$end
$timescale
	1s
$end
$scope module tb $end
$var reg 1 ! clk $end
$var reg 1 " resetb $end
$var reg 1 # rxd $end
$scope module sys1 $end
$var wire 1 $ cclk $end
$var wire 1 ! clk $end
$var wire 1 % fssb $end
$var wire 1 & irq $end
$var wire 1 ' irqcs $end
$var wire 30 ( ivector [31:2] $end
$var wire 1 ) miso $end
$var wire 1 * mosi $end
$var wire 1 + reset $end
$var wire 1 # rxd $end
$var wire 1 , sck $end
$var wire 1 - uartcs $end
$var wire 1 . urd $end
$var wire 1 / uwrbaud $end
$var wire 1 0 uwrtx $end
$var wire 2 1 vecn [1:0] $end
$var wire 8 2 uart_do [7:0] $end
$var wire 1 3 txd $end
$var wire 1 4 trap $end
$var wire 1 5 thre $end
$var wire 1 6 tend $end
$var wire 1 7 ove $end
$var wire 4 8 mwe [3:0] $end
$var wire 32 9 mdo [31:0] $end
$var wire 2 : irqpen [1:0] $end
$var wire 1 ; iramcs $end
$var wire 1 < iocs $end
$var wire 1 = fe $end
$var wire 1 > dv $end
$var wire 32 ? cdo [31:0] $end
$var wire 32 @ ca [31:0] $end
$var reg 32 A cdi [31:0] $end
$var reg 32 B iodo [31:0] $end
$var reg 2 C irqen [1:0] $end
$var reg 32 D tcount [31:0] $end
$scope module cpu $end
$var wire 1 E LOAD_sign $end
$var wire 30 F PC [31:2] $end
$var wire 30 G PC0 [31:2] $end
$var wire 30 H PC1 [31:2] $end
$var wire 30 I PCimm [31:2] $end
$var wire 32 J aluIn2 [31:0] $end
$var wire 32 K aluOut [31:0] $end
$var wire 1 $ clk $end
$var wire 1 L csrrw_mepc $end
$var wire 1 M ebreak $end
$var wire 1 N ecall $end
$var wire 1 O ireti $end
$var wire 1 & irq $end
$var wire 1 P irqstart $end
$var wire 1 Q issub $end
$var wire 30 R ivector [31:2] $end
$var wire 1 S jump $end
$var wire 1 T left_sh $end
$var wire 1 U mret $end
$var wire 1 V opauipc $end
$var wire 1 W opbranch $end
$var wire 1 X opimm $end
$var wire 1 Y opjal $end
$var wire 1 Z opjalr $end
$var wire 1 [ opload $end
$var wire 1 \ oplui $end
$var wire 1 ] opreg $end
$var wire 1 ^ opstore $end
$var wire 1 _ opsystem $end
$var wire 32 ` rdata [31:0] $end
$var wire 32 a regsD [31:0] $end
$var wire 1 b regswr $end
$var wire 1 + reset $end
$var wire 1 c signed_sh $end
$var wire 1 4 trap $end
$var wire 4 d wstrb [3:0] $end
$var wire 32 e wdata [31:0] $end
$var wire 32 f sh_t5 [31:0] $end
$var wire 32 g sh_t4 [31:0] $end
$var wire 32 h sh_t3 [31:0] $end
$var wire 32 i sh_t2 [31:0] $end
$var wire 32 j sh_t1 [31:0] $end
$var wire 32 k sh_out [31:0] $end
$var wire 32 l sh_in [31:0] $end
$var wire 5 m rs2 [4:0] $end
$var wire 5 n rs1 [4:0] $end
$var wire 32 o regsQ2 [31:0] $end
$var wire 32 p regsQ1 [31:0] $end
$var wire 5 q rd [4:0] $end
$var wire 8 r prlist [7:0] $end
$var wire 1 s predicate $end
$var wire 7 t opcode [6:0] $end
$var wire 1 u mem_halfwordAccess $end
$var wire 1 v mem_byteAccess $end
$var wire 32 w ldstaddr [31:0] $end
$var wire 7 x funct7 [6:0] $end
$var wire 3 y funct3 [2:0] $end
$var wire 32 z aluIn1 [31:0] $end
$var wire 33 { aluAdder [32:0] $end
$var wire 30 | addr [31:2] $end
$var wire 32 } Uimm [31:0] $end
$var wire 32 ~ Simm [31:0] $end
$var wire 30 !" PCnext [31:2] $end
$var wire 30 "" PCadd2 [31:2] $end
$var wire 30 #" PCadd1 [31:2] $end
$var wire 1 $" LTU $end
$var wire 1 %" LT $end
$var wire 16 &" LOAD_halfword [15:0] $end
$var wire 32 '" LOAD_data [31:0] $end
$var wire 8 (" LOAD_byte [7:0] $end
$var wire 32 )" Jimm [31:0] $end
$var wire 32 *" Iimm [31:0] $end
$var wire 1 +" EQ $end
$var wire 32 ," Bimm [31:0] $end
$var reg 32 -" IR [31:0] $end
$var reg 30 ." PCci [31:2] $end
$var reg 1 /" mmode $end
$var reg 1 0" opvalid $end
$var reg 1 1" q0 $end
$var integer 32 2" i [31:0] $end
$upscope $end
$scope module ram0 $end
$var wire 12 3" addr [11:0] $end
$var wire 1 4" clk $end
$var wire 32 5" data_read [31:0] $end
$var wire 32 6" data_write [31:0] $end
$var wire 1 ; re $end
$var wire 4 7" wrlanes [3:0] $end
$var reg 32 8" data_out [31:0] $end
$upscope $end
$scope module uart0 $end
$var wire 1 $ clk $end
$var wire 16 9" d [15:0] $end
$var wire 1 :" falling $end
$var wire 1 = fe $end
$var wire 8 ;" q [7:0] $end
$var wire 1 . rd $end
$var wire 1 <" resinc $end
$var wire 1 # rxd $end
$var wire 1 6 tend $end
$var wire 1 / wrbaud $end
$var wire 1 0 wrtx $end
$var wire 1 3 txd $end
$var wire 1 =" shift $end
$var wire 1 >" rxst $end
$var wire 1 ?" clko $end
$var wire 1 @" clki0 $end
$var reg 4 A" cbrx [3:0] $end
$var reg 4 B" cntbit [3:0] $end
$var reg 12 C" divider [11:0] $end
$var reg 12 D" divrx [11:0] $end
$var reg 12 E" divtx [11:0] $end
$var reg 1 > dv $end
$var reg 1 7 ove $end
$var reg 8 F" rbr [7:0] $end
$var reg 1 G" rdy $end
$var reg 2 H" rrxd [1:0] $end
$var reg 1 I" rxst0 $end
$var reg 9 J" shrx [8:0] $end
$var reg 9 K" shtx [8:0] $end
$var reg 1 L" stopb $end
$var reg 8 M" thr [7:0] $end
$var reg 1 5 thre $end
$upscope $end
$upscope $end
$upscope $end
$enddefinitions $end
#0
$dumpvars
bx M"
xL"
b111111111 K"
bx J"
xI"
b0 H"
1G"
bx F"
b0 E"
b0 D"
b0 C"
bx B"
b1111 A"
1@"
1?"
1>"
1="
0<"
bx ;"
0:"
b0 9"
bx 8"
b0 7"
b0 6"
bx 5"
14"
b0 3"
b10000 2"
01"
00"
0/"
bx ."
bx -"
bx0 ,"
1+"
bx *"
bx0 )"
bx ("
bx '"
bx &"
0%"
0$"
b1 #"
bx ""
b1 !"
bx ~
bx000000000000 }
b0 |
b0 {
b0 z
bx y
bx x
bx w
xv
xu
bx t
xs
b10100001 r
b0 q
b0 p
b0 o
b0 n
b0 m
b0 l
b0 k
b0 j
b0 i
b0 h
b0 g
b0 f
b0 e
b0 d
0c
0b
b0 a
bx `
0_
0^
0]
0\
0[
0Z
0Y
0X
0W
0V
0U
0T
0S
bx R
0Q
0P
0O
0N
0M
0L
b0 K
b0 J
b0 I
b0 H
b0 G
b0 F
xE
b0 D
b0 C
bx B
bx A
b0zz @
b0 ?
0>
x=
0<
1;
b0 :
bx 9
b0 8
07
16
15
04
13
bx 2
bx 1
00
0/
0.
0-
z,
1+
z*
z)
bx (
0'
0&
z%
0$
1#
0"
0!
$end
#5
1<"
b0 ""
b0 ."
b1 H"
1I"
b1 D
04"
1$
1!
#10
0E
b0x0000000000000001101111 '"
b1101111 ("
b1101111 &"
b10000000000000001101111 A
b10000000000000001101111 `
b10000000000000001101111 9
b10000000000000001101111 5"
b10000000000000001101111 8"
14"
0$
0!
#15
b1101111 '"
0<"
1v
0u
b0 w
b1101111 t
1s
b0 y
b0 x
b10000000000000000000000 }
b100 *"
b0 ~
b0 ,"
b100 )"
b11 H"
b10000000000000001101111 -"
b10 D
04"
1$
1!
#20
14"
0$
0!
#25
b11 D
04"
1$
1!
#30
14"
0$
0!
#35
b100 D
04"
1$
1!
#40
14"
0$
0!
#45
b101 D
04"
1$
1!
#50
14"
0$
0!
#55
b110 D
04"
1$
1!
#60
14"
0$
0!
#65
b111 D
04"
1$
1!
#70
14"
0$
0!
#75
b1000 D
04"
1$
1!
#77
0+
1"
#80
14"
0$
0!
#85
1b
b100 a
1S
b1 ""
b1 I
b1 3"
b1 !"
b1zz @
b1 |
b100 m
1Y
bx H
b10 #"
b1 F
b1 G
10"
b1001 D
04"
1$
1!
#90
b110111 '"
b110111 ("
b100000100110111 &"
b100000100110111 A
b100000100110111 `
b100000100110111 9
b100000100110111 5"
b100000100110111 8"
14"
0$
0!
#95
0b
b0 a
0S
b0 I
b10 !"
b10 w
b0 m
0Y
b110111 t
0s
b100 y
b100000000000000 }
b0 *"
b10 ~
b10 ,"
b100000000000000 )"
00"
b1 ""
b1 ."
b100000100110111 -"
b1010 D
04"
1$
1!
#100
14"
0$
0!
#105
b100000000000000 a
b100000000000000 K
b10100010 r
0+"
b100000000000000 {
1b
b100000000000000 J
b10 3"
b11 !"
b10zz @
b10 |
b10 q
1\
b11 #"
b10 F
b10 G
10"
b1011 D
04"
1$
1!
#110
b10111 '"
b10111 ("
b1010100010111 &"
b1010100010111 A
b1010100010111 `
b1010100010111 9
b1010100010111 5"
b1010100010111 8"
14"
0$
0!
#115
b1000000001000 a
b1000000001000 K
b1000 k
b1000 f
b1000 g
b1000 h
b1000 i
b1000 j
b1000 l
b1000000001000 {
b1000 z
b1010100010111 '"
b1000000000000 J
b11 3"
b100 !"
0\
1V
0v
1u
b1010 q
b1010 w
b11zz @
b11 |
b10111 t
1s
b1 y
b1000000000000 }
b1010 ~
b1010 ,"
b1000000000000 )"
b100 #"
b11 F
b11 G
b10 ""
b10 ."
b1010100010111 -"
b1100 D
04"
1$
1!
#120
b10011 ("
b10100010011 '"
b10100010011 &"
b11000100110001010000010100010011 A
b11000100110001010000010100010011 `
b11000100110001010000010100010011 9
b11000100110001010000010100010011 5"
b11000100110001010000010100010011 8"
14"
0$
0!
#125
b1100010 r
1$"
b110001010100 K
b1 k
b110001010100 a
b1 f
b1 g
b1 h
b10000 i
1b
b1000000001000 p
b1000000001000 j
b10011 '"
b11111111111111111111110001001100 J
b1000000001000 l
b100 3"
b101 !"
1X
0V
1v
0u
b1010 n
b1100 m
b110001010010 w
b100000000000000000000110001010100 {
b1000000001000 z
b100zz @
b100 |
b10011 t
0s
b0 y
b1100010 x
b11000100110001010000000000000000 }
b11111111111111111111110001001100 *"
b11111111111111111111110001001010 ~
b11111111111111111111010001001010 ,"
b11111111111101010000010001001100 )"
b101 #"
b100 F
b100 G
b11000100110001010000010100010011 -"
b11 ""
b11 ."
b1101 D
04"
1$
1!
#130
1E
b11111111111111111111111110010111 '"
b10010111 ("
b1010110010111 &"
b1010110010111 A
b1010110010111 `
b1010110010111 9
b1010110010111 5"
b1010110010111 8"
14"
0$
0!
#135
b10000 f
b1000000010000 a
b10000 g
b10000 h
b10100010 r
0$"
b1000000000000 J
b10000 j
b1000000010000 K
0E
b10000 l
b10000 k
b1010110010111 '"
b1000000010000 {
b10000 z
b101 3"
b110 !"
0X
1V
0T
0v
1u
b1011 q
b0 n
b0 m
b101zz @
b101 |
b10111 t
1s
b1 y
b0 x
b1000000000000 }
b0 *"
b1011 ~
b100000001010 ,"
b1000000000000 )"
b1011 w
b0 p
b110 #"
b101 F
b101 G
b100 ""
b100 ."
b1010110010111 -"
b1110 D
04"
1$
1!
#140
1E
b10010011 ("
b11111111111111111000010110010011 '"
b1000010110010011 &"
b11000100010001011000010110010011 A
b11000100010001011000010110010011 `
b11000100010001011000010110010011 9
b11000100010001011000010110010011 5"
b11000100010001011000010110010011 8"
14"
0$
0!
#145
b1100010 r
1$"
b110001010100 K
b100000001 k
b110001010100 a
b100000001 f
b100000001 g
b100000001 h
b1000000010000 i
1b
b1000000010000 p
b1000000010000 j
b11111111111111111111111110010011 '"
b11111111111111111111110001000100 J
b1000000010000 l
b110 3"
b111 !"
1X
0V
1v
0u
b1011 n
b100 m
b110001011011 w
b100000000000000000000110001010100 {
b1000000010000 z
b110zz @
b110 |
b10011 t
0s
b0 y
b1100010 x
b11000100010001011000000000000000 }
b11111111111111111111110001000100 *"
b11111111111111111111110001001011 ~
b11111111111111111111110001001010 ,"
b11111111111101011000010001000100 )"
b111 #"
b110 F
b110 G
b11000100010001011000010110010011 -"
b101 ""
b101 ."
b1111 D
04"
1$
1!
#150
0E
b10111 '"
b10111 ("
b1011000010111 &"
b1011000010111 A
b1011000010111 `
b1011000010111 9
b1011000010111 5"
b1011000010111 8"
14"
0$
0!
#155
b11000 f
b1000000011000 a
b11000 g
b11000 h
b10100010 r
0$"
b11000 i
b1000000000000 J
b11000 j
b1000000011000 K
b11000 l
b11000 k
b1011000010111 '"
b1000000011000 {
b11000 z
b111 3"
b1000 !"
0X
1V
0T
0v
1u
b1100 q
b0 n
b0 m
b111zz @
b111 |
b10111 t
1s
b1 y
b0 x
b1000000000000 }
b0 *"
b1100 ~
b1100 ,"
b1000000000000 )"
b1100 w
b0 p
b1000 #"
b111 F
b111 G
b110 ""
b110 ."
b1011000010111 -"
b10000 D
04"
1$
1!
#160
b10011 ("
b11000010011 '"
b11000010011 &"
b11000100000001100000011000010011 A
b11000100000001100000011000010011 `
b11000100000001100000011000010011 9
b11000100000001100000011000010011 5"
b11000100000001100000011000010011 8"
14"
0$
0!
#165
b1100010 r
1$"
b110001011000 K
b1000000011000 k
b110001011000 a
b1000000011000 f
b1000000011000 g
b1000000011000 h
b1000000011000 i
1b
b1000000011000 p
b1000000011000 j
b10011 '"
b11111111111111111111110001000000 J
b1000000011000 l
b1000 3"
b1001 !"
1X
0V
1v
0u
b1100 n
b110001100100 w
b100000000000000000000110001011000 {
b1000000011000 z
b1000zz @
b1000 |
b10011 t
0s
b0 y
b1100010 x
b11000100000001100000000000000000 }
b11111111111111111111110001000000 *"
b11111111111111111111110001001100 ~
b11111111111111111111010001001100 ,"
b11111111111101100000010001000000 )"
b1001 #"
b1000 F
b1000 G
b11000100000001100000011000010011 -"
b111 ""
b111 ."
b10001 D
04"
1$
1!
#170
b1100011 '"
b1100011 ("
b101110001100011 &"
b110001010101110001100011 A
b110001010101110001100011 `
b110001010101110001100011 9
b110001010101110001100011 5"
b110001010101110001100011 8"
14"
0$
0!
#175
b0 k
0b
b0 f
b0 a
1%"
b0 g
b0 h
b110001011000 9"
b0 i
b1100011 ("
b0 I
b110001011000 ?
b110001011000 e
b110001011000 6"
b110001011000 J
b0 j
0S
b1010010 r
1$"
b0 K
b110001011000 o
b110001010100 l
1Q
b101110001100011 '"
b111111111111111111111111111111100 {
b110001010100 z
b1001 3"
b1010 !"
0X
1W
0v
1u
b11000 q
b1010 n
b1100 m
b1001zz @
b1001 |
b1100011 t
0s
b101 y
b0 x
b110001010101000000000000 }
b1100 *"
b11000 ~
b11000 ,"
b1010101000000001100 )"
b110001101100 w
b110001010100 p
b1010 #"
b1001 F
b1001 G
b1000 ""
b1000 ."
b110001010101110001100011 -"
b10010 D
04"
1$
1!
#180
b10000011 ("
b1010011010000011 '"
b1010011010000011 &"
b1011010011010000011 A
b1011010011010000011 `
b1011010011010000011 9
b1011010011010000011 5"
b1011010011010000011 8"
14"
0$
0!
#185
b110001010100 k
b110001010100 f
b110001010100 g
b110001010100 h
b110001010100 i
b110001010100 j
1b
b0 K
b0 J
b1011010011010000011 a
b0 9"
0%"
b1010011010000011 &"
b10000011 ("
b0 ?
b0 e
b0 6"
b10100010 r
0$"
b1011010011010000011 '"
b0 o
b110001010100 {
0Q
1E
b1100010101 3"
b1010 !"
1[
0W
0u
b1101 q
b1011 n
b0 m
b110001010100 w
b1100010101zz @
b1100010101 |
b11 t
b10 y
b1011010000000000000 }
b0 *"
b1101 ~
b100000001100 ,"
b1011010000000000000 )"
b1010 #"
b1010 F
b1010 G
b1011010011010000011 -"
b1001 ""
b1001 ."
b10011 D
04"
1$
1!
#190
b100000 a
0E
b100000 ("
b100000 '"
b100000 &"
b100000 A
b100000 `
b100000 9
b100000 5"
b100000 8"
14"
0$
0!
#195
b0 k
b0 f
b0 g
b0 K
b0 h
b0 i
b0 j
0b
1s
b10100001 r
1+"
b0 l
b1011 !"
b0 {
b0 z
b0 a
b1010 3"
b1011 #"
b0 w
b0 p
b1010zz @
b1010 |
1v
b0 q
b0 n
0[
b100000 t
b0 y
b0 }
b0 ~
b0 ,"
b0 )"
00"
b1010 ""
b1010 ."
b100000 -"
b10100 D
04"
1$
1!
#200
b100011 '"
b100011 ("
b10000000100011 &"
b110101010010000000100011 A
b110101010010000000100011 `
b110101010010000000100011 9
b110101010010000000100011 5"
b110101010010000000100011 8"
14"
0$
0!
#205
b110001010100 k
b110001010100 f
b110001010100 g
b110001010100 h
b110001010100 i
b110001010100 j
b10100010 r
0+"
b110001010100 l
b110001010100 {
b110001010100 z
b100000 9"
b100000 ?
b100000 e
b100000 6"
b110001010100 w
b110001010100 p
b100000 o
b1111 7"
b110101010010000000100011 '"
b1100010101 3"
b1011 !"
b1111 8
b1111 d
0v
b1100010101zz @
b1100010101 |
b1010 n
b1101 m
1^
b100011 t
0s
b10 y
b110101010010000000000000 }
b1101 *"
b1010010100000001100 )"
b1011 #"
b1011 F
b1011 G
10"
b110101010010000000100011 -"
b10101 D
04"
1$
1!
#210
b100000 ("
b100000 '"
b100000 &"
b100000 A
b100000 `
b100000 9
b100000 5"
b100000 8"
14"
0$
0!
#215
b0 k
b0 f
b0 g
b0 K
b0 h
b0 i
b0 j
1s
b10100001 r
1+"
b0 l
b0 {
b0 z
b0 9"
b1100 !"
b0 ?
b0 e
b0 6"
b1011 3"
b0 w
b0 p
b0 o
b1011zz @
b1011 |
b1100 #"
b0 7"
b0 8
b0 d
1v
b0 n
b0 m
0^
b100000 t
b0 y
b0 }
b0 *"
b0 )"
00"
b1011 ""
b1011 ."
b100000 -"
b10110 D
04"
1$
1!
#220
b10011 '"
b10011 ("
b10100010011 &"
b10001010000010100010011 A
b10001010000010100010011 `
b10001010000010100010011 9
b10001010000010100010011 5"
b10001010000010100010011 8"
14"
0$
0!
#225
b110001011000 a
b110001011000 K
b11000101 k
b11000101 f
b11000101 g
b11000101 h
b110001010100 i
1b
b110001010100 j
b100 J
0s
b10100010 r
0+"
b110001010100 l
b110001011000 {
b110001010100 z
b110001010100 p
b1100 3"
b1101 !"
b110001011110 w
b1100zz @
b1100 |
b1010 q
b1010 n
b100 m
1X
b10011 t
b10001010000000000000000 }
b100 *"
b1010 ~
b1010 ,"
b1010000000000000100 )"
b1101 #"
b1100 F
b1100 G
10"
b10001010000010100010011 -"
b10111 D
04"
1$
1!
#230
1E
b11111111111111111111111110010011 '"
b10010011 ("
b1000010110010011 &"
b10001011000010110010011 A
b10001011000010110010011 `
b10001011000010110010011 9
b10001011000010110010011 5"
b10001011000010110010011 8"
14"
0$
0!
#235
b110001011000 a
b110001011000 K
b110001010100 i
b110001010100 j
b110001010100 l
b110001011000 {
b110001010100 z
b1101 3"
b1110 !"
b1011 q
b1011 n
b1101zz @
b1101 |
b10001011000000000000000 }
b1011 ~
b100000001010 ,"
b1011000000000000100 )"
b110001011111 w
b110001010100 p
b1110 #"
b1101 F
b1101 G
b1100 ""
b1100 ."
b10001011000010110010011 -"
b11000 D
04"
1$
1!
#240
b11111111111111111111111111100011 '"
b11100011 ("
b100100011100011 &"
b11111110110001010100100011100011 A
b11111110110001010100100011100011 `
b11111110110001010100100011100011 9
b11111110110001010100100011100011 5"
b11111110110001010100100011100011 8"
14"
0$
0!
#245
b0 k
1+"
b0 f
b0 g
b0 K
0b
b0 a
b0 h
b0 I
0S
b0 i
b110001011000 9"
b0 j
0s
0%"
b11100011 ("
b110001011000 ?
b110001011000 e
b110001011000 6"
b110001011000 J
b110001011000 l
b10100001 r
0$"
b11100011 '"
b110001011000 o
b110001011000 z
b0 {
1Q
0E
b1110 3"
b1111 !"
0X
1W
b10001 q
b1010 n
b1100 m
b1110zz @
b1110 |
b110001001001 w
b110001011000 p
b1100011 t
b100 y
b1111111 x
b11111110110001010100000000000000 }
b11111111111111111111111111101100 *"
b11111111111111111111111111110001 ~
b11111111111111111111111111110000 ,"
b11111111111101010100011111101100 )"
b1111 #"
b1110 F
b1110 G
b11111110110001010100100011100011 -"
b1101 ""
b1101 ."
b11001 D
04"
1$
1!
#250
b10111 '"
b10111 ("
b1010100010111 &"
b1010100010111 A
b1010100010111 `
b1010100010111 9
b1010100010111 5"
b1010100010111 8"
14"
0$
0!
#255
b1000000111000 a
b111000 k
b111000 f
b111000 g
b111000 h
b1000000111000 K
b111000 i
b111000 j
b0 9"
1s
b1010100010111 &"
b10111 ("
b1000000000000 J
b111000 l
b0 ?
b0 e
b0 6"
b10100010 r
0+"
1b
b111000 z
b0 p
b0 o
b1000000111000 {
0Q
b1010100010111 '"
b1111 3"
b10000 !"
0W
1V
0v
1u
b1010 q
b0 n
b0 m
b1010 w
b1111zz @
b1111 |
b10111 t
b1 y
b0 x
b1000000000000 }
b0 *"
b1010 ~
b1010 ,"
b1000000000000 )"
b10000 #"
b1111 F
b1111 G
b1110 ""
b1110 ."
b1010100010111 -"
b11010 D
04"
1$
1!
#260
b10011 ("
b10100010011 '"
b10100010011 &"
b11000010000001010000010100010011 A
b11000010000001010000010100010011 `
b11000010000001010000010100010011 9
b11000010000001010000010100010011 5"
b11000010000001010000010100010011 8"
14"
0$
0!
#265
b1100010 r
1$"
b110001011000 K
b1000000111000 k
b110001011000 a
b1000000111000 f
b1000000111000 g
b1000000111000 h
b1000000111000 i
1b
b1000000111000 p
b1000000111000 j
b10011 '"
b11111111111111111111110000100000 J
b1000000111000 l
b10000 3"
b10001 !"
1X
0V
1v
0u
b1010 n
b110001100010 w
b100000000000000000000110001011000 {
b1000000111000 z
b10000zz @
b10000 |
b10011 t
0s
b0 y
b1100001 x
b11000010000001010000000000000000 }
b11111111111111111111110000100000 *"
b11111111111111111111110000101010 ~
b11111111111111111111010000101010 ,"
b11111111111101010000010000100000 )"
b10001 #"
b10000 F
b10000 G
b11000010000001010000010100010011 -"
b1111 ""
b1111 ."
b11011 D
04"
1$
1!
#270
1E
b11111111111111111111111110010111 '"
b10010111 ("
b1010110010111 &"
b1010110010111 A
b1010110010111 `
b1010110010111 9
b1010110010111 5"
b1010110010111 8"
14"
0$
0!
#275
b1000000 f
b1000001000000 a
b1000000 g
b1000000 h
b10100010 r
0$"
b1000000 i
b1000000000000 J
b1000000 j
b1000001000000 K
0E
b1000000 l
b1000000 k
b1010110010111 '"
b1000001000000 {
b1000000 z
b10001 3"
b10010 !"
0X
1V
0T
0v
1u
b1011 q
b0 n
b10001zz @
b10001 |
b10111 t
1s
b1 y
b0 x
b1000000000000 }
b0 *"
b1011 ~
b100000001010 ,"
b1000000000000 )"
b1011 w
b0 p
b10010 #"
b10001 F
b10001 G
b10000 ""
b10000 ."
b1010110010111 -"
b11100 D
04"
1$
1!
#280
1E
b10010011 ("
b11111111111111111000010110010011 '"
b1000010110010011 &"
b11000011110001011000010110010011 A
b11000011110001011000010110010011 `
b11000011110001011000010110010011 9
b11000011110001011000010110010011 5"
b11000011110001011000010110010011 8"
14"
0$
0!
#285
b1100010 r
1$"
b110001111100 K
b0 k
b110001111100 a
b0 f
b0 g
b110001011000 9"
b0 h
b110001011000 ?
b110001011000 e
b110001011000 6"
b0 i
1b
b1000001000000 p
b110001011000 o
b0 j
b11111111111111111111111110010011 '"
b11111111111111111111110000111100 J
b1000001000000 l
b10010 3"
b10011 !"
1X
0V
1v
0u
b1011 n
b11100 m
b110001101011 w
b100000000000000000000110001111100 {
b1000001000000 z
b10010zz @
b10010 |
b10011 t
0s
b0 y
b1100001 x
b11000011110001011000000000000000 }
b11111111111111111111110000111100 *"
b11111111111111111111110000101011 ~
b11111111111111111111110000101010 ,"
b11111111111101011000010000111100 )"
b10011 #"
b10010 F
b10010 G
b11000011110001011000010110010011 -"
b10001 ""
b10001 ."
b11101 D
04"
1$
1!
#290
0E
b1100011 '"
b1100011 ("
b101100001100011 &"
b101101010101100001100011 A
b101101010101100001100011 `
b101101010101100001100011 9
b101101010101100001100011 5"
b101101010101100001100011 8"
14"
0$
0!
#295
b0 K
0b
b0 a
b0 i
1%"
b0 j
b110001111100 9"
b1100011 ("
b0 I
b110001111100 ?
b110001111100 e
b110001111100 6"
b110001111100 J
0S
b1010010 r
1$"
b110001111100 o
b110001011000 l
1Q
b101100001100011 '"
b111111111111111111111111111011100 {
b110001011000 z
b10011 3"
b10100 !"
0X
1W
0v
1u
b10000 q
b1010 n
b1011 m
b10011zz @
b10011 |
b1100011 t
0s
b101 y
b0 x
b101101010101000000000000 }
b1011 *"
b10000 ~
b10000 ,"
b1010101100000001010 )"
b110001101000 w
b110001011000 p
b10100 #"
b10011 F
b10011 G
b10010 ""
b10010 ."
b101101010101100001100011 -"
b11110 D
04"
1$
1!
#300
b100011 ("
b10000000100011 '"
b10000000100011 &"
b1010010000000100011 A
b1010010000000100011 `
b1010010000000100011 9
b1010010000000100011 5"
b1010010000000100011 8"
14"
0$
0!
#305
b110001011000 k
b110001011000 f
b110001011000 g
b110001011000 h
b110001011000 i
b110001011000 j
b0 K
b0 J
b0 9"
0%"
b10000000100011 &"
b100011 ("
b0 ?
b0 e
b0 6"
b1111 7"
b10100010 r
0$"
b1010010000000100011 '"
b0 o
b1111 8
b1111 d
b110001011000 {
0Q
b1100010110 3"
b10100 !"
1^
0W
0u
b0 q
b0 m
b110001011000 w
b1100010110zz @
b1100010110 |
b100011 t
b10 y
b1010010000000000000 }
b0 *"
b0 ~
b0 ,"
b1010010000000000000 )"
b10100 #"
b10100 F
b10100 G
b1010010000000100011 -"
b10011 ""
b10011 ."
b11111 D
04"
1$
1!
#310
b0 ("
b0 '"
b0 &"
b0 A
b0 `
b0 9
b0 5"
b0 8"
14"
0$
0!
#315
b0 k
b0 f
b0 g
b0 K
b0 h
b0 i
b0 j
1s
b10100001 r
1+"
b0 l
b0 {
b0 z
b10101 !"
b10100 3"
b0 w
b0 p
b10100zz @
b10100 |
b10101 #"
b0 7"
b0 8
b0 d
1v
b0 n
0^
b0 t
b0 y
b0 }
b0 )"
00"
b10100 ""
b10100 ."
b0 -"
b100000 D
04"
1$
1!
#320
b10011 '"
b10011 ("
b10100010011 &"
b10001010000010100010011 A
b10001010000010100010011 `
b10001010000010100010011 9
b10001010000010100010011 5"
b10001010000010100010011 8"
14"
0$
0!
#325
b110001011100 a
b110001011100 K
b11000101 k
b11000101 f
b11000101 g
b11000101 h
b110001011000 i
1b
b110001011000 j
b100 J
0s
b10100010 r
0+"
b110001011000 l
b110001011100 {
b110001011000 z
b110001011000 p
b10101 3"
b10110 !"
b110001100010 w
b10101zz @
b10101 |
b1010 q
b1010 n
b100 m
1X
b10011 t
b10001010000000000000000 }
b100 *"
b1010 ~
b1010 ,"
b1010000000000000100 )"
b10110 #"
b10101 F
b10101 G
10"
b10001010000010100010011 -"
b100001 D
04"
1$
1!
#330
1E
b11111111111111111111111111100011 '"
b11100011 ("
b100110011100011 &"
b11111110101101010100110011100011 A
b11111110101101010100110011100011 `
b11111110101101010100110011100011 9
b11111110101101010100110011100011 5"
b11111110101101010100110011100011 8"
14"
0$
0!
#335
b100000 K
0b
b0 a
b111111111111111111111111111110 I
b0 k
1S
b0 h
b0 g
b0 f
b110001111100 9"
b0 i
1s
1%"
b11100011 ("
b110001111100 ?
b110001111100 e
b110001111100 6"
b110001111100 J
b0 j
b1010010 r
1$"
b11100011 '"
b110001111100 o
b110001011100 l
1Q
0E
b111111111111111111111111111100000 {
b110001011100 z
b10110 3"
b10011 !"
0X
1W
b11001 q
b1011 m
b10110zz @
b10110 |
b1100011 t
b100 y
b1111111 x
b11111110101101010100000000000000 }
b11111111111111111111111111101011 *"
b11111111111111111111111111111001 ~
b11111111111111111111111111111000 ,"
b11111111111101010100111111101010 )"
b110001010101 w
b110001011100 p
b10111 #"
b10110 F
b10110 G
b10011 ""
b10101 ."
b11111110101101010100110011100011 -"
b100010 D
04"
1$
1!
#340
b11101111 '"
b11101111 ("
b11101111 &"
b111010100000000000011101111 A
b111010100000000000011101111 `
b111010100000000000011101111 9
b111010100000000000011101111 5"
b111010100000000000011101111 8"
14"
0$
0!
#345
1+"
b0 l
b0 J
b0 K
b0 z
b0 9"
0%"
b11101111 &"
b11101111 ("
b0 ?
b0 e
b0 6"
b11111111111111111111111111101111 '"
b0 I
b0 p
b0 o
b10100001 r
0$"
0S
1E
b10011 3"
b0 {
0Q
b1100001 w
b10100 !"
b10011zz @
b10011 |
b0 q
b0 n
b0 m
0W
b1101111 t
1s
b0 y
b11 x
b111010100000000000000000000 }
b1110101 *"
b1100001 ~
b100001100000 ,"
b100001110100 )"
b10100 #"
b10011 F
b10011 G
00"
b111010100000000000011101111 -"
b10110 ""
b10110 ."
b100011 D
04"
1$
1!
#350
0E
b100011 '"
b100011 ("
b10000000100011 &"
b1010010000000100011 A
b1010010000000100011 `
b1010010000000100011 9
b1010010000000100011 5"
b1010010000000100011 8"
14"
0$
0!
#355
b110001011100 k
b110001011100 f
b110001011100 g
b110001011100 h
b110001011100 i
b110001011100 j
b10100010 r
0+"
b110001011100 l
b110001011100 {
b110001011100 z
b110001011100 p
b1111 7"
b1010010000000100011 '"
b1111 8
b1111 d
b1100010111 3"
b10100 !"
0v
b110001011100 w
b1010 n
1^
b1100010111zz @
b1100010111 |
b100011 t
0s
b10 y
b0 x
b1010010000000000000 }
b0 *"
b0 ~
b0 ,"
b1010010000000000000 )"
10"
b10100 #"
b10100 F
b10100 G
b10011 ""
b10011 ."
b1010010000000100011 -"
b100100 D
04"
1$
1!
#360
b0 ("
b0 '"
b0 &"
b0 A
b0 `
b0 9
b0 5"
b0 8"
14"
0$
0!
