Software/laRVa_lesdoy_G4/tb.vcd
$date
	Fri Jan 09 09:14:45 2026
$end
$version
	Icarus Verilog
$end
$timescale
	1s
$end
$scope module tb $end
$var reg 1 ! clk $end
$var reg 1 " resetb $end
$var reg 1 # rxd $end
$scope module sys1 $end
$var wire 1 $ adc_cs $end
$var wire 1 % bme680_cs $end
$var wire 1 & cclk $end
$var wire 1 ! clk $end
$var wire 32 ' entrada [31:0] $end
$var wire 1 ( gpics $end
$var wire 1 ) gpocs $end
$var wire 1 * ice_miso $end
$var wire 1 + irq $end
$var wire 1 , irqcs $end
$var wire 30 - ivector [31:2] $end
$var wire 1 . lora_cs $end
$var wire 1 / lora_miso $end
$var wire 4 0 owr [3:0] $end
$var wire 1 1 reset $end
$var wire 1 # rxd $end
$var wire 1 2 rxd1 $end
$var wire 1 3 rxd2 $end
$var wire 32 4 salida [31:0] $end
$var wire 1 5 spi0cs $end
$var wire 1 6 spi1cs $end
$var wire 1 7 timercs $end
$var wire 1 8 uart0cs $end
$var wire 1 9 uart1cs $end
$var wire 1 : uart2cs $end
$var wire 1 ; urd0 $end
$var wire 1 < urd1 $end
$var wire 1 = urd2 $end
$var wire 1 > uwrbaud0 $end
$var wire 1 ? uwrbaud1 $end
$var wire 1 @ uwrbaud2 $end
$var wire 1 A uwrtx0 $end
$var wire 1 B uwrtx1 $end
$var wire 1 C uwrtx2 $end
$var wire 1 D wr_LORA $end
$var wire 1 E wr_spi_ICE $end
$var wire 3 F vecn [2:0] $end
$var wire 8 G uart2_do [7:0] $end
$var wire 8 H uart1_do [7:0] $end
$var wire 8 I uart0_do [7:0] $end
$var wire 1 J txd2 $end
$var wire 1 K txd1 $end
$var wire 1 L txd $end
$var wire 1 M trap $end
$var wire 1 N thre2 $end
$var wire 1 O thre1 $end
$var wire 1 P thre0 $end
$var wire 1 Q tend2 $end
$var wire 1 R tend1 $end
$var wire 1 S tend0 $end
$var wire 1 T ove2 $end
$var wire 1 U ove1 $end
$var wire 1 V ove0 $end
$var wire 4 W mwe [3:0] $end
$var wire 32 X mdo [31:0] $end
$var wire 1 Y lora_sck $end
$var wire 1 Z lora_mosi $end
$var wire 1 [ lora_busy $end
$var wire 7 \ irqpen [6:0] $end
$var wire 1 ] iramcs $end
$var wire 1 ^ iocs $end
$var wire 1 _ ice_sck $end
$var wire 1 ` ice_mosi $end
$var wire 1 a ice_busy $end
$var wire 1 b fe2 $end
$var wire 1 c fe1 $end
$var wire 1 d fe0 $end
$var wire 1 e dv2 $end
$var wire 1 f dv1 $end
$var wire 1 g dv0 $end
$var wire 32 h dout_spi_LORA [31:0] $end
$var wire 32 i dout_spi_ICE [31:0] $end
$var wire 32 j cdo [31:0] $end
$var wire 32 k ca [31:0] $end
$var wire 1 l BME680_cs $end
$var wire 1 m ADC_cs $end
$var reg 32 n cdi [31:0] $end
$var reg 32 o control_ICE [31:0] $end
$var reg 6 p control_LORA [5:0] $end
$var reg 32 q din_spi_ICE [31:0] $end
$var reg 32 r din_spi_LORA [31:0] $end
$var reg 8 s divider_LORA [7:0] $end
$var reg 32 t iodo [31:0] $end
$var reg 8 u irqen [7:0] $end
$var reg 32 v max_count [31:0] $end
$var reg 1 w mc_flag $end
$var reg 2 x nss_ICE [1:0] $end
$var reg 32 y outreg [31:0] $end
$var reg 32 z tcount [31:0] $end
$var integer 32 { k [31:0] $end
$scope module cpu $end
$var wire 1 | LOAD_sign $end
$var wire 30 } PC [31:2] $end
$var wire 30 ~ PC0 [31:2] $end
$var wire 30 !" PC1 [31:2] $end
$var wire 30 "" PCimm [31:2] $end
$var wire 32 #" aluIn2 [31:0] $end
$var wire 32 $" aluOut [31:0] $end
$var wire 1 & clk $end
$var wire 1 %" csrrw_mepc $end
$var wire 1 &" ebreak $end
$var wire 1 '" ecall $end
$var wire 1 (" ireti $end
$var wire 1 + irq $end
$var wire 1 )" irqstart $end
$var wire 1 *" issub $end
$var wire 30 +" ivector [31:2] $end
$var wire 1 ," jump $end
$var wire 1 -" left_sh $end
$var wire 1 ." mret $end
$var wire 1 /" opauipc $end
$var wire 1 0" opbranch $end
$var wire 1 1" opimm $end
$var wire 1 2" opjal $end
$var wire 1 3" opjalr $end
$var wire 1 4" opload $end
$var wire 1 5" oplui $end
$var wire 1 6" opreg $end
$var wire 1 7" opstore $end
$var wire 1 8" opsystem $end
$var wire 32 9" rdata [31:0] $end
$var wire 32 :" regsD [31:0] $end
$var wire 1 ;" regswr $end
$var wire 1 1 reset $end
$var wire 1 <" signed_sh $end
$var wire 1 M trap $end
$var wire 4 =" wstrb [3:0] $end
$var wire 32 >" wdata [31:0] $end
$var wire 32 ?" sh_t5 [31:0] $end
$var wire 32 @" sh_t4 [31:0] $end
$var wire 32 A" sh_t3 [31:0] $end
$var wire 32 B" sh_t2 [31:0] $end
$var wire 32 C" sh_t1 [31:0] $end
$var wire 32 D" sh_out [31:0] $end
$var wire 32 E" sh_in [31:0] $end
$var wire 5 F" rs2 [4:0] $end
$var wire 5 G" rs1 [4:0] $end
$var wire 32 H" regsQ2 [31:0] $end
$var wire 32 I" regsQ1 [31:0] $end
$var wire 5 J" rd [4:0] $end
$var wire 8 K" prlist [7:0] $end
$var wire 1 L" predicate $end
$var wire 7 M" opcode [6:0] $end
$var wire 1 N" mem_halfwordAccess $end
$var wire 1 O" mem_byteAccess $end
$var wire 32 P" ldstaddr [31:0] $end
$var wire 7 Q" funct7 [6:0] $end
$var wire 3 R" funct3 [2:0] $end
$var wire 32 S" aluIn1 [31:0] $end
$var wire 33 T" aluAdder [32:0] $end
$var wire 30 U" addr [31:2] $end
$var wire 32 V" Uimm [31:0] $end
$var wire 32 W" Simm [31:0] $end
$var wire 30 X" PCnext [31:2] $end
$var wire 30 Y" PCadd2 [31:2] $end
$var wire 30 Z" PCadd1 [31:2] $end
$var wire 1 [" LTU $end
$var wire 1 \" LT $end
$var wire 16 ]" LOAD_halfword [15:0] $end
$var wire 32 ^" LOAD_data [31:0] $end
$var wire 8 _" LOAD_byte [7:0] $end
$var wire 32 `" Jimm [31:0] $end
$var wire 32 a" Iimm [31:0] $end
$var wire 1 b" EQ $end
$var wire 32 c" Bimm [31:0] $end
$var reg 32 d" IR [31:0] $end
$var reg 30 e" PCci [31:2] $end
$var reg 1 f" mmode $end
$var reg 1 g" opvalid $end
$var reg 1 h" q0 $end
$var integer 32 i" i [31:0] $end
$upscope $end
$scope module ram0 $end
$var wire 12 j" addr [11:0] $end
$var wire 1 k" clk $end
$var wire 32 l" data_read [31:0] $end
$var wire 32 m" data_write [31:0] $end
$var wire 1 ] re $end
$var wire 4 n" wrlanes [3:0] $end
$var reg 32 o" data_out [31:0] $end
$upscope $end
$scope module spi0 $end
$var wire 6 p" bits [5:0] $end
$var wire 1 a busy $end
$var wire 1 & clk $end
$var wire 32 q" din [31:0] $end
$var wire 8 r" divider [7:0] $end
$var wire 32 s" dout [31:0] $end
$var wire 1 t" falling $end
$var wire 1 * miso $end
$var wire 1 E wr $end
$var wire 1 u" zerodiv $end
$var wire 1 ` mosi $end
$var reg 6 v" bitcnt [5:0] $end
$var reg 8 w" divcnt [7:0] $end
$var reg 1 _ sck $end
$var reg 32 x" shreg [31:0] $end
$var reg 1 y" sin $end
$upscope $end
$scope module spi1 $end
$var wire 6 z" bits [5:0] $end
$var wire 1 [ busy $end
$var wire 1 & clk $end
$var wire 32 {" din [31:0] $end
$var wire 8 |" divider [7:0] $end
$var wire 32 }" dout [31:0] $end
$var wire 1 ~" falling $end
$var wire 1 / miso $end
$var wire 1 D wr $end
$var wire 1 !# zerodiv $end
$var wire 1 Z mosi $end
$var reg 6 "# bitcnt [5:0] $end
$var reg 8 ## divcnt [7:0] $end
$var reg 1 Y sck $end
$var reg 32 $# shreg [31:0] $end
$var reg 1 %# sin $end
$upscope $end
$scope module uart0 $end
$var wire 1 & clk $end
$var wire 16 &# d [15:0] $end
$var wire 1 '# falling $end
$var wire 1 d fe $end
$var wire 8 (# q [7:0] $end
$var wire 1 ; rd $end
$var wire 1 )# resinc $end
$var wire 1 # rxd $end
$var wire 1 S tend $end
$var wire 1 > wrbaud $end
$var wire 1 A wrtx $end
$var wire 1 L txd $end
$var wire 1 *# shift $end
$var wire 1 +# rxst $end
$var wire 1 ,# clko $end
$var wire 1 -# clki0 $end
$var reg 4 .# cbrx [3:0] $end
$var reg 4 /# cntbit [3:0] $end
$var reg 12 0# divider [11:0] $end
$var reg 12 1# divrx [11:0] $end
$var reg 12 2# divtx [11:0] $end
$var reg 1 g dv $end
$var reg 1 V ove $end
$var reg 8 3# rbr [7:0] $end
$var reg 1 4# rdy $end
$var reg 2 5# rrxd [1:0] $end
$var reg 1 6# rxst0 $end
$var reg 9 7# shrx [8:0] $end
$var reg 9 8# shtx [8:0] $end
$var reg 1 9# stopb $end
$var reg 8 :# thr [7:0] $end
$var reg 1 P thre $end
$upscope $end
$scope module uart1 $end
$var wire 1 & clk $end
$var wire 16 ;# d [15:0] $end
$var wire 1 <# falling $end
$var wire 1 c fe $end
$var wire 8 =# q [7:0] $end
$var wire 1 < rd $end
$var wire 1 ># resinc $end
$var wire 1 2 rxd $end
$var wire 1 R tend $end
$var wire 1 ? wrbaud $end
$var wire 1 B wrtx $end
$var wire 1 K txd $end
$var wire 1 ?# shift $end
$var wire 1 @# rxst $end
$var wire 1 A# clko $end
$var wire 1 B# clki0 $end
$var reg 4 C# cbrx [3:0] $end
$var reg 4 D# cntbit [3:0] $end
$var reg 12 E# divider [11:0] $end
$var reg 12 F# divrx [11:0] $end
$var reg 12 G# divtx [11:0] $end
$var reg 1 f dv $end
$var reg 1 U ove $end
$var reg 8 H# rbr [7:0] $end
$var reg 1 I# rdy $end
$var reg 2 J# rrxd [1:0] $end
$var reg 1 K# rxst0 $end
$var reg 9 L# shrx [8:0] $end
$var reg 9 M# shtx [8:0] $end
$var reg 1 N# stopb $end
$var reg 8 O# thr [7:0] $end
$var reg 1 O thre $end
$upscope $end
$scope module uart2 $end
$var wire 1 & clk $end
$var wire 16 P# d [15:0] $end
$var wire 1 Q# falling $end
$var wire 1 b fe $end
$var wire 8 R# q [7:0] $end
$var wire 1 = rd $end
$var wire 1 S# resinc $end
$var wire 1 3 rxd $end
$var wire 1 Q tend $end
$var wire 1 @ wrbaud $end
$var wire 1 C wrtx $end
$var wire 1 J txd $end
$var wire 1 T# shift $end
$var wire 1 U# rxst $end
$var wire 1 V# clko $end
$var wire 1 W# clki0 $end
$var reg 4 X# cbrx [3:0] $end
$var reg 4 Y# cntbit [3:0] $end
$var reg 12 Z# divider [11:0] $end
$var reg 12 [# divrx [11:0] $end
$var reg 12 \# divtx [11:0] $end
$var reg 1 e dv $end
$var reg 1 T ove $end
$var reg 8 ]# rbr [7:0] $end
$var reg 1 ^# rdy $end
$var reg 2 _# rrxd [1:0] $end
$var reg 1 `# rxst0 $end
$var reg 9 a# shrx [8:0] $end
$var reg 9 b# shtx [8:0] $end
$var reg 1 c# stopb $end
$var reg 8 d# thr [7:0] $end
$var reg 1 N thre $end
$upscope $end
$upscope $end
$upscope $end
$enddefinitions $end
#0
$dumpvars
bx d#
xc#
b111111111 b#
bx a#
x`#
b0 _#
1^#
bx ]#
b0 \#
b0 [#
b0 Z#
bx Y#
b1111 X#
1W#
1V#
1U#
1T#
0S#
bx R#
0Q#
b0 P#
bx O#
xN#
b111111111 M#
bx L#
xK#
b0 J#
1I#
bx H#
b0 G#
b0 F#
b0 E#
bx D#
b1111 C#
1B#
1A#
1@#
1?#
0>#
bx =#
0<#
b0 ;#
bx :#
x9#
b111111111 8#
bx 7#
x6#
b0 5#
14#
bx 3#
b0 2#
b0 1#
b0 0#
bx /#
b1111 .#
1-#
1,#
1+#
1*#
0)#
bx (#
0'#
b0 &#
0%#
bx $#
b0 ##
b0 "#
1!#
0~"
bx }"
bx |"
bx {"
bx z"
0y"
bx x"
b0 w"
b0 v"
1u"
0t"
bx s"
bx r"
b0 q"
bx p"
bx o"
b0 n"
b0 m"
bx l"
1k"
b0 j"
b10000 i"
0h"
0g"
0f"
bx e"
bx d"
bx0 c"
1b"
bx a"
bx0 `"
bx _"
bx ^"
bx ]"
0\"
0["
b1 Z"
bx Y"
b1 X"
bx W"
bx000000000000 V"
b0 U"
b0 T"
b0 S"
bx R"
bx Q"
bx P"
xO"
xN"
bx M"
xL"
b10100001 K"
b0 J"
b0 I"
b0 H"
b0 G"
b0 F"
b0 E"
b0 D"
b0 C"
b0 B"
b0 A"
b0 @"
b0 ?"
b0 >"
b0 ="
0<"
0;"
b0 :"
bx 9"
08"
07"
06"
05"
04"
03"
02"
01"
00"
0/"
0."
0-"
0,"
bx +"
0*"
0)"
0("
0'"
0&"
0%"
b0 $"
b0 #"
b0 ""
b0 !"
b0 ~
b0 }
x|
b1000 {
b0 z
bx y
b11 x
0w
b11111111111111111111111111111111 v
b0 u
bx t
bx s
bx r
bx q
bx p
bx o
bx n
1m
1l
b0zz k
b0 j
bx i
bx h
0g
0f
0e
xd
xc
xb
0a
x`
0_
0^
1]
b0 \
0[
xZ
0Y
bx X
b0 W
0V
0U
0T
1S
1R
1Q
1P
1O
1N
0M
1L
1K
1J
bx I
bx H
bx G
bx F
0E
0D
0C
0B
0A
0@
0?
0>
0=
0<
0;
0:
09
08
07
06
05
bx 4
z3
z2
11
b0 0
z/
0.
bx -
0,
0+
z*
0)
0(
bz '
0&
z%
z$
1#
0"
0!
$end
#5
1)#
x>#
xS#
b0 Y"
b0 e"
b1 5#
16#
b0z J#
1K#
b0z _#
1`#
xu"
bx w"
x!#
bx ##
0k"
b1000 {
b1 z
1&
1!
#10
0|
b0x0000000000000001101111 ^"
b1101111 _"
b1101111 ]"
b10000000000000001101111 n
b10000000000000001101111 9"
b10000000000000001101111 X
b10000000000000001101111 l"
b10000000000000001101111 o"
1k"
0&
0!
#15
b1101111 ^"
xQ#
x<#
0)#
1O"
0N"
b0 P"
b1101111 M"
1L"
b0 R"
b0 Q"
b10000000000000000000000 V"
b100 a"
b0 W"
b0 c"
b100 `"
bz _#
bz J#
b11 5#
b10000000000000001101111 d"
0k"
b1000 {
b10 z
1&
1!
#20
1k"
0&
0!
#25
0k"
b1000 {
b11 z
1&
1!
#30
1k"
0&
0!
#35
0k"
b1000 {
b100 z
1&
1!
#40
1k"
0&
0!
#45
0k"
b1000 {
b101 z
1&
1!
#50
1k"
0&
0!
#55
0k"
b1000 {
b110 z
1&
1!
#60
1k"
0&
0!
#65
0k"
b1000 {
b111 z
1&
1!
#70
1k"
0&
0!
#75
0k"
b1000 {
b1000 z
1&
1!
#77
01
1"
#80
1k"
0&
0!
#85
1;"
b100 :"
1,"
b1 Y"
b1 ""
b1 j"
b1 X"
b1zz k
b1 U"
b100 F"
12"
bx !"
b10 Z"
b1 }
b1 ~
1g"
0k"
b1001 z
1&
1!
#90
b110111 ^"
b110111 _"
b100000100110111 ]"
b100000100110111 n
b100000100110111 9"
b100000100110111 X
b100000100110111 l"
b100000100110111 o"
1k"
0&
0!
#95
0;"
b0 :"
0,"
b0 ""
b10 X"
b10 P"
b0 F"
02"
b110111 M"
0L"
b100 R"
b100000000000000 V"
b0 a"
b10 W"
b10 c"
b100000000000000 `"
0g"
b1 Y"
b1 e"
b100000100110111 d"
0k"
b1010 z
1&
1!
#100
1k"
0&
0!
#105
b100000000000000 :"
b100000000000000 $"
b10100010 K"
0b"
b100000000000000 T"
1;"
b100000000000000 #"
b10 j"
b11 X"
b10zz k
b10 U"
b10 J"
15"
b11 Z"
b10 }
b10 ~
1g"
0k"
b1011 z
1&
1!
#110
b10111 ^"
b10111 _"
b11010100010111 ]"
b11010100010111 n
b11010100010111 9"
b11010100010111 X
b11010100010111 l"
b11010100010111 o"
1k"
0&
0!
#115
b11000000001000 :"
b11000000001000 $"
b1000 D"
b1000 ?"
b1000 @"
b1000 A"
b1000 B"
b1000 C"
b1000 E"
b11000000001000 T"
b1000 S"
b11010100010111 ^"
b11000000000000 #"
b11 j"
b100 X"
05"
1/"
0O"
b1010 J"
b1010 P"
b11zz k
b11 U"
b10111 M"
b11 R"
b11000000000000 V"
b1010 W"
b1010 c"
b11000000000000 `"
b100 Z"
b11 }
b11 ~
b10 Y"
b10 e"
b11010100010111 d"
0k"
b1100 z
1&
1!
#120
b10011 _"
b11101100001010000010100010011 ^"
b10100010011 ]"
b11101100001010000010100010011 n
b11101100001010000010100010011 9"
b11101100001010000010100010011 X
b11101100001010000010100010011 l"
b11101100001010000010100010011 o"
1k"
0&
0!
#125
b11000111100000 $"
b0 D"
b11000111100000 :"
b0 ?"
b0 @"
b0 A"
b0 B"
1;"
b11000000001000 I"
b0 C"
b10011 ^"
b111011000 #"
b11000000001000 E"
b100 j"
b101 X"
11"
0/"
1O"
b1010 G"
b11000 F"
b11000111010010 P"
b11000111100000 T"
b11000000001000 S"
b100zz k
b100 U"
b10011 M"
b0 R"
b1110 Q"
b11101100001010000000000000000 V"
b111011000 a"
b111001010 W"
b111001010 c"
b1010000000111011000 `"
b101 Z"
b100 }
b100 ~
b11101100001010000010100010011 d"
b11 Y"
b11 e"
0k"
b1101 z
1&
1!
#130
1|
b11111111111111111111111110010111 ^"
b10010111 _"
b11010110010111 ]"
b11010110010111 n
b11010110010111 9"
b11010110010111 X
b11010110010111 l"
b11010110010111 o"
1k"
0&
0!
#135
b11000000010000 :"
b10000 D"
b10000 ?"
b11000000010000 $"
b10000 @"
b10000 A"
b10000 B"
b10000 C"
b11000000000000 #"
0|
b10000 E"
b11010110010111 ^"
b11000000010000 T"
b10000 S"
b101 j"
b110 X"
01"
1/"
0O"
b1011 J"
b0 G"
b0 F"
b101zz k
b101 U"
b10111 M"
b11 R"
b0 Q"
b11000000000000 V"
b0 a"
b1011 W"
b100000001010 c"
b11000000000000 `"
b1011 P"
b0 I"
b110 Z"
b101 }
b101 ~
b100 Y"
b100 e"
b11010110010111 d"
0k"
b1110 z
1&
1!
#140
1|
b10010011 _"
b11101000001011000010110010011 ^"
b1000010110010011 ]"
b11101000001011000010110010011 n
b11101000001011000010110010011 9"
b11101000001011000010110010011 X
b11101000001011000010110010011 l"
b11101000001011000010110010011 o"
1k"
0&
0!
#145
b11000111100000 $"
b0 D"
b11000111100000 :"
b0 ?"
b0 @"
b0 A"
b0 B"
1;"
b11000000010000 I"
b0 C"
b11111111111111111111111110010011 ^"
b111010000 #"
b11000000010000 E"
b110 j"
b111 X"
11"
0/"
1O"
b1011 G"
b10000 F"
b11000111011011 P"
b11000111100000 T"
b11000000010000 S"
b110zz k
b110 U"
b10011 M"
b0 R"
b1110 Q"
b11101000001011000000000000000 V"
b111010000 a"
b111001011 W"
b100111001010 c"
b1011000000111010000 `"
b111 Z"
b110 }
b110 ~
b11101000001011000010110010011 d"
b101 Y"
b101 e"
0k"
b1111 z
1&
1!
#150
0|
b10111 ^"
b10111 _"
b11011000010111 ]"
b11011000010111 n
b11011000010111 9"
b11011000010111 X
b11011000010111 l"
b11011000010111 o"
1k"
0&
0!
#155
b11000000011000 :"
b11000 D"
b11000 ?"
b11000000011000 $"
b11000 @"
b11000 A"
b11000 B"
b11000 C"
b11000000000000 #"
b11000 E"
b11011000010111 ^"
b11000000011000 T"
b11000 S"
b111 j"
b1000 X"
01"
1/"
0O"
b1100 J"
b0 G"
b0 F"
b111zz k
b111 U"
b10111 M"
b11 R"
b0 Q"
b11000000000000 V"
b0 a"
b1100 W"
b1100 c"
b11000000000000 `"
b1100 P"
b0 I"
b1000 Z"
b111 }
b111 ~
b110 Y"
b110 e"
b11011000010111 d"
0k"
b10000 z
1&
1!
#160
b10011 _"
b11100110001100000011000010011 ^"
b11000010011 ]"
b11100110001100000011000010011 n
b11100110001100000011000010011 9"
b11100110001100000011000010011 X
b11100110001100000011000010011 l"
b11100110001100000011000010011 o"
1k"
0&
0!
#165
b0 t
b11000111100100 $"
b11 D"
b11000111100100 :"
b11 ?"
b11 @"
b11000000011000 P#
b11000000011000 ;#
b11000000011000 &#
b11 A"
b11000000011000 j
b11000000011000 >"
b11000000011000 m"
b11000000011000 q"
b110000 B"
1;"
b11000000011000 I"
b11000000011000 H"
b11000000011000 C"
b10011 ^"
b111001100 #"
b11000000011000 E"
b1000 j"
b1001 X"
11"
0/"
1O"
b1100 G"
b1100 F"
b11000111100100 P"
b11000111100100 T"
b11000000011000 S"
b1000zz k
b1000 U"
b10011 M"
b0 R"
b1110 Q"
b11100110001100000000000000000 V"
b111001100 a"
b111001100 W"
b111001100 c"
b1100000000111001100 `"
b1001 Z"
b1000 }
b1000 ~
b11100110001100000011000010011 d"
b111 Y"
b111 e"
0k"
b10001 z
1&
1!
#170
b1100011 ^"
b1100011 _"
b101110001100011 ]"
b110001010101110001100011 n
b110001010101110001100011 9"
b110001010101110001100011 X
b110001010101110001100011 l"
b110001010101110001100011 o"
1k"
0&
0!
#175
bx t
b1100011110 D"
b1100011110 ?"
b1100011110 @"
b1100011110 A"
0;"
b0 :"
b11000111100000 B"
1\"
b1100011 _"
b0 ""
b11000111100100 #"
b11000111100000 C"
0,"
b1010010 K"
1["
b1100011110 $"
b11000111100000 E"
1*"
b101110001100011 ^"
b111111111111111111111111111111100 T"
b11000111100000 S"
b11000111100100 P#
b11000111100100 ;#
b11000111100100 &#
b1001 j"
b1010 X"
01"
10"
0O"
1N"
b11000 J"
b1010 G"
b11000111100100 j
b11000111100100 >"
b11000111100100 m"
b11000111100100 q"
b1001zz k
b1001 U"
b1100011 M"
0L"
b101 R"
b0 Q"
b110001010101000000000000 V"
b1100 a"
b11000 W"
b11000 c"
b1010101000000001100 `"
b11000111111000 P"
b11000111100000 I"
b11000111100100 H"
b1010 Z"
b1001 }
b1001 ~
b1000 Y"
b1000 e"
b110001010101110001100011 d"
0k"
b10010 z
1&
1!
#180
b10000011 _"
b1010011010000011 ^"
b1010011010000011 ]"
b1011010011010000011 n
b1011010011010000011 9"
b1011010011010000011 X
b1011010011010000011 l"
b1011010011010000011 o"
1k"
0&
0!
#185
b11000111100000 D"
b11000111100000 ?"
b11000111100000 @"
b11000111100000 A"
1;"
b0 #"
b1011010011010000011 :"
b0 P#
b0 ;#
b0 &#
0\"
b1010011010000011 ]"
b10000011 _"
b0 j
b0 >"
b0 m"
b0 q"
b10100010 K"
0["
b0 $"
b1011010011010000011 ^"
b0 H"
b11000111100000 T"
0*"
1|
b110001111000 j"
b1010 X"
14"
00"
0N"
b1101 J"
b1011 G"
b0 F"
b11000111100000 P"
b110001111000zz k
b110001111000 U"
b11 M"
b10 R"
b1011010000000000000 V"
b0 a"
b1101 W"
b100000001100 c"
b1011010000000000000 `"
b1010 Z"
b1010 }
b1010 ~
b1011010011010000011 d"
b1001 Y"
b1001 e"
0k"
b10011 z
1&
1!
#190
b100000 :"
0|
b100000 _"
b100000 ^"
b100000 ]"
b100000 n
b100000 9"
b100000 X
b100000 l"
b100000 o"
1k"
0&
0!
#195
b0 D"
b0 ?"
b0 @"
b0 $"
b0 A"
b0 B"
b0 C"
0;"
1L"
b10100001 K"
1b"
b0 E"
b1011 X"
b0 T"
b0 S"
b0 :"
b1010 j"
b1011 Z"
b0 P"
b0 I"
b1010zz k
b1010 U"
1O"
b0 J"
b0 G"
04"
b100000 M"
b0 R"
b0 V"
b0 W"
b0 c"
b0 `"
0g"
b1010 Y"
b1010 e"
b100000 d"
0k"
b10100 z
1&
1!
#200
b100011 ^"
b100011 _"
b10000000100011 ]"
b110101010010000000100011 n
b110101010010000000100011 9"
b110101010010000000100011 X
b110101010010000000100011 l"
b110101010010000000100011 o"
1k"
0&
0!
#205
b11000111100000 D"
b11000111100000 ?"
b11000111100000 @"
b11000111100000 A"
b11000111100000 B"
b11000111100000 C"
b10100010 K"
0b"
b11000111100000 E"
b11000111100000 T"
b11000111100000 S"
b100000 P#
b100000 ;#
b100000 &#
b100000 j
b100000 >"
b100000 m"
b100000 q"
b11000111100000 P"
b11000111100000 I"
b100000 H"
b1111 n"
b110101010010000000100011 ^"
b110001111000 j"
b1011 X"
b1111 W
b1111 ="
0O"
b110001111000zz k
b110001111000 U"
b1010 G"
b1101 F"
17"
b100011 M"
0L"
b10 R"
b110101010010000000000000 V"
b1101 a"
b1010010100000001100 `"
b1011 Z"
b1011 }
b1011 ~
1g"
b110101010010000000100011 d"
0k"
b10101 z
1&
1!
#210
b100000 _"
b100000 ^"
b100000 ]"
b100000 n
b100000 9"
b100000 X
b100000 l"
b100000 o"
1k"
0&
0!
#215
b0 D"
b0 ?"
b0 @"
b0 $"
b0 A"
b0 B"
b0 C"
1L"
b10100001 K"
1b"
b0 E"
b0 T"
b0 S"
b0 P#
b0 ;#
b0 &#
b1100 X"
b0 j
b0 >"
b0 m"
b0 q"
b1011 j"
b0 P"
b0 I"
b0 H"
b1011zz k
b1011 U"
b1100 Z"
b0 n"
b0 W
b0 ="
1O"
b0 G"
b0 F"
07"
b100000 M"
b0 R"
b0 V"
b0 a"
b0 `"
0g"
b1011 Y"
b1011 e"
b100000 d"
0k"
b10110 z
1&
1!
#220
b10011 ^"
b10011 _"
b10100010011 ]"
b10001010000010100010011 n
b10001010000010100010011 9"
b10001010000010100010011 X
b10001010000010100010011 l"
b10001010000010100010011 o"
1k"
0&
0!
#225
b11000111100100 :"
b11000111100100 $"
b1100011110 D"
b1100011110 ?"
b1100011110 @"
b1100011110 A"
b11000111100000 B"
1;"
b11000111100000 C"
b100 #"
0L"
b10100010 K"
0b"
b11000111100000 E"
b11000111100100 T"
b11000111100000 S"
b11000111100000 I"
b1100 j"
b1101 X"
b11000111101010 P"
b1100zz k
b1100 U"
b1010 J"
b1010 G"
b100 F"
11"
b10011 M"
b10001010000000000000000 V"
b100 a"
b1010 W"
b1010 c"
b1010000000000000100 `"
b1101 Z"
b1100 }
b1100 ~
1g"
b10001010000010100010011 d"
0k"
b10111 z
1&
1!
#230
1|
b11111111111111111111111110010011 ^"
b10010011 _"
b1000010110010011 ]"
b10001011000010110010011 n
b10001011000010110010011 9"
b10001011000010110010011 X
b10001011000010110010011 l"
b10001011000010110010011 o"
1k"
0&
0!
#235
bz t
b11000111100100 :"
b11000111100100 $"
b11000111100000 B"
b11000111100000 C"
b11000111100000 E"
b11000111100100 T"
b11000111100000 S"
b1101 j"
b1110 X"
b1011 J"
b1011 G"
b1101zz k
b1101 U"
b10001011000000000000000 V"
b1011 W"
b100000001010 c"
b1011000000000000100 `"
b11000111101011 P"
b11000111100000 I"
b1110 Z"
b1101 }
b1101 ~
b1100 Y"
b1100 e"
b10001011000010110010011 d"
0k"
b11000 z
1&
1!
#240
b11111111111111111111111111100011 ^"
b11100011 _"
b100100011100011 ]"
b11111110110001010100100011100011 n
b11111110110001010100100011100011 9"
b11111110110001010100100011100011 X
b11111110110001010100100011100011 l"
b11111110110001010100100011100011 o"
1k"
0&
0!
#245
bx t
b1100011110 D"
1b"
b1100011110 ?"
b1100011110 @"
b0 $"
0;"
b0 :"
b1100011110 A"
b0 ""
0,"
b11000111100100 B"
b11000111100100 P#
b11000111100100 ;#
b11000111100100 &#
b11000111100100 C"
0L"
0\"
b11100011 _"
b11000111100100 j
b11000111100100 >"
b11000111100100 m"
b11000111100100 q"
b11000111100100 #"
b11000111100100 E"
b10100001 K"
0["
b11100011 ^"
b11000111100100 H"
b11000111100100 S"
b0 T"
1*"
0|
b1110 j"
b1111 X"
01"
10"
b10001 J"
b1010 G"
b1100 F"
b1110zz k
b1110 U"
b11000111010101 P"
b11000111100100 I"
b1100011 M"
b100 R"
b1111111 Q"
b11111110110001010100000000000000 V"
b11111111111111111111111111101100 a"
b11111111111111111111111111110001 W"
b11111111111111111111111111110000 c"
b11111111111101010100011111101100 `"
b1111 Z"
b1110 }
b1110 ~
b11111110110001010100100011100011 d"
b1101 Y"
b1101 e"
0k"
b11001 z
1&
1!
#250
b10111 ^"
b10111 _"
b11010100010111 ]"
b11010100010111 n
b11010100010111 9"
b11010100010111 X
b11010100010111 l"
b11010100010111 o"
1k"
0&
0!
#255
b11000000111000 :"
b111000 D"
b11000000111000 $"
b111000 ?"
b111000 @"
b111000 A"
b11000000000000 #"
b111000 B"
b111000 C"
b0 P#
b0 ;#
b0 &#
b11010100010111 ]"
b10111 _"
b111000 E"
b0 j
b0 >"
b0 m"
b0 q"
b10100010 K"
0b"
1;"
b111000 S"
b0 I"
b0 H"
b11000000111000 T"
0*"
b11010100010111 ^"
b1111 j"
b10000 X"
00"
1/"
0O"
b1010 J"
b0 G"
b0 F"
b1010 P"
b1111zz k
b1111 U"
b10111 M"
b11 R"
b0 Q"
b11000000000000 V"
b0 a"
b1010 W"
b1010 c"
b11000000000000 `"
b10000 Z"
b1111 }
b1111 ~
b1110 Y"
b1110 e"
b11010100010111 d"
0k"
b11010 z
1&
1!
#260
b10011 _"
b11011000001010000010100010011 ^"
b10100010011 ]"
b11011000001010000010100010011 n
b11011000001010000010100010011 9"
b11011000001010000010100010011 X
b11011000001010000010100010011 l"
b11011000001010000010100010011 o"
1k"
0&
0!
#265
b11111111111111111111111111111111 t
b11000111101000 $"
b0 D"
b11000111101000 :"
b0 ?"
b0 @"
b0 A"
b0 B"
1;"
b11000000111000 I"
b0 C"
b10011 ^"
b110110000 #"
b11000000111000 E"
b10000 j"
b10001 X"
11"
0/"
1O"
b1010 G"
b10000 F"
b11000111100010 P"
b11000111101000 T"
b11000000111000 S"
b10000zz k
b10000 U"
b10011 M"
b0 R"
b1101 Q"
b11011000001010000000000000000 V"
b110110000 a"
b110101010 W"
b110101010 c"
b1010000000110110000 `"
b10001 Z"
b10000 }
b10000 ~
b11011000001010000010100010011 d"
b1111 Y"
b1111 e"
0k"
b11011 z
1&
1!
